…
1.  Сколько уникальных рас персонажей (species) представлено в данных?

``` r
starwars %>% distinct(species)
```

    # A tibble: 38 × 1
       species       
       <chr>         
     1 Human         
     2 Droid         
     3 Wookiee       
     4 Rodian        
     5 Hutt          
     6 Yoda's species
     7 Trandoshan    
     8 Mon Calamari  
     9 Ewok          
    10 Sullustan     
    # ℹ 28 more rows
…
1.  Подсчитать ИМТ (индекс массы тела) для всех персонажей. ИМТ
    подсчитать по формуле 𝐼 = 𝑚/ℎ2 , где 𝑚– масса (weight), а ℎ – рост
    (height).

``` r
starwars %>% mutate("ИМТ" = mass/(height*height)) %>% select(name,ИМТ)
```

    # A tibble: 87 × 2
       name                   ИМТ
       <chr>                <dbl>
     1 Luke Skywalker     0.00260
     2 C-3PO              0.00269
     3 R2-D2              0.00347
     4 Darth Vader        0.00333
     5 Leia Organa        0.00218
     6 Owen Lars          0.00379
     7 Beru Whitesun lars 0.00275
     8 R5-D4              0.00340
     9 Biggs Darklighter  0.00251
    10 Obi-Wan Kenobi     0.00232
    # ℹ 77 more rows
…
    # A tibble: 1 × 2
      eye_color Колличество
      <chr>           <int>
    1 brown              21

1.  Подсчитать среднюю длину имени в каждой расе вселенной Звездных войн

``` r
starwars %>% mutate(len=nchar(name))  %>% group_by(species) %>% summarise('mean' = mean(len)) %>% select(species,mean)
```

    # A tibble: 38 × 2
       species    mean
       <chr>     <dbl>
     1 Aleena    13   
     2 Besalisk  15   
     3 Cerean    12   
     4 Chagrian  10   
     5 Clawdite  10   
     6 Droid      4.83
     7 Dug        7   
     8 Ewok      21   
     9 Geonosian 17   
    10 Gungan    11.7 
    # ℹ 28 more rows
…
