…
    closing file input connection.

``` r
webpage_url <- "https://learn.microsoft.com/en-us/windows-server/identity/ad-ds/plan/appendix-l--events-to-monitor"
webpage <- xml2::read_html(webpage_url)
event_df <- rvest::html_table(webpage)[[1]]
event_df
```

    # A tibble: 381 × 4
       `Current Windows Event ID` `Legacy Windows Event ID` `Potential Criticality`
       <chr>                      <chr>                     <chr>                  
     1 4618                       N/A                       High                   
     2 4649                       N/A                       High                   
     3 4719                       612                       High                   
     4 4765                       N/A                       High                   
     5 4766                       N/A                       High                   
     6 4794                       N/A                       High                   
     7 4897                       801                       High                   
     8 4964                       N/A                       High                   
     9 5124                       N/A                       High                   
    10 N/A                        550                       Medium to High         
    # ℹ 371 more rows
    # ℹ 1 more variable: `Event Summary` <chr>
…
